{
"urls": [
{"name": "🔔切换线路后务必刷新接口", "url": "https://gitlab.com/tvbox009/cangku/-/raw/main/Local_OtherJson/tishixianlu.json"},

{"name": "🚀PG线路", "url": "http://152.32.170.60/leevi/PiG/raw/branch/master/jsm.json"},
{"name": "🚀饭太硬(com)", "url": "http://www.饭太硬.com/tv/"},
{"name": "🚀肥猫(http)", "url": "http://肥猫.live"},
{"name": "🚀肥猫(新com)", "url": "http://肥猫.com"},
{"name": "🚀肥猫(二级地址)", "url": "http://like.肥猫.com/你好"},
{"name": "🚀荷城茶秀", "url": "http://rihou.cc:88/荷城茶秀"},
{"name": "🚀iitvba", "url": "http://tt.iitvba.com/vip/tv.json"},
{"name": "🐹星辰线路", "url":"http://8.210.232.168/xc.json"},

{"name": "🚀道长", "url": "https://pastebin.com/raw/5NHaxyGR"},
{"name": "🚀水果线路", "url":"http://152.32.170.60/leevi/xpg/raw/branch/master/api.json"},
{"name": "🚀放牛路线", "url": "http://tvbox.王二小放牛娃.xyz"},
{"name": "🚀巧技(Ray)线路", "url":"https://100km.top/0"},
{"name": "🚀俊佬(于俊)", "url": "http://home.jundie.top:81/top98.json"},

{"name": "🚀毒盒影视🚀", "url": "https://tv.youdu.fan:666/duhe/"},
{"name": "🚀毒盒影视Ⅱ", "url": "https://tv.youdu.fan:666/毒盒影视/"},
{"name": "🚀饭太硬线", "url": "https://tv.youdu.fan:666/饭太硬/"},
{"name": "🚀小米线路", "url": "https://tv.youdu.fan:666/小米/"},
{"name": "🚀肥猫线路", "url": "https://tv.youdu.fan:666/肥猫/"},
{"name": "🚀春盈天下", "url": "https://tv.youdu.fan:666/cy/"},
{"name": "🚀PG线路", "url": "https://tv.youdu.fan:666/PG/"},

{"name": "🚀老刘备", "url": "https://raw.liucn.cc/box/m.json"},
{"name": "🔍老刘备(备用)", "url": "https://cdn.jsdelivr.net/gh/liu673cn/box@main/m.json"},

{"name": "🚀霜辉月明", "url": "https://ghproxy.net/https://raw.githubusercontent.com/lm317379829/PyramidStore/pyramid/py.json"},
{"name": "🚀霜辉月明2", "url": "https://ghproxy.net/https://raw.githubusercontent.com/lm317379829/PyramidStore/main/py.json"},

{"name": "🚀香雅晴", "url": "https://ghproxy.net/https://raw.githubusercontent.com/xyq254245/xyqonlinerule/main/XYQTVBox.json"},
{"name": "🌺香雅情", "url": "https://raw.gitmirror.com/yw88075/tvbox/main/XYQTVBox/XYQTVBox.json"},

{"name": "🚀dxawi/github1", "url": "https://xhdwc.tk/0"},
{"name": "🐷dxawi/github2", "url": "http://dxawi.github.io/0/0.json"},
{"name": "🐷dxawi/github3", "url": "https://dxawi.github.io/0/0.json"},

{"name": "👑荷城茶秀", "url": "http://ysc.weixine.net:88/荷城茶秀"},
{"name": "🏆荷城茶秀", "url": "http://152.32.170.60/XiaoYiChaHang/xxzb/raw/branch/master/hccx.json"},
{"name": "🌸荷城茶锈", "url": "http://rihou.vip:88/荷城茶秀"},

{"name": "🐹南风", "url": "http://152.32.170.60/Yoursmile7/TVBox/raw/branch/master/XC.json"},
{"name": "🐹天天开心", "url": "http://rihou.vip:55/天天开心"},
{"name": "🐹D佬魔改", "url": "https://download.kstore.space/download/2883/nzk/nzk0722.json"},

{"name": "🐹月光宝盒", "url": "https://gh.con.sh/https://raw.githubusercontent.com/guot55/yg/main/ygbox.json"},
{"name": "🐝月光宝盒", "url": "http://152.32.170.60/guot54/ygbh/raw/branch/master/plus/PRO.json"},

{"name": "🐹吾爱", "url": "http://52pan.top:81/api/v3/file/get/174964/%E5%90%BE%E7%88%B1%E8%AF%84%E6%B5%8B.m3u?sign=rPssLoffquDXszCARt6UNF8MobSa1FA27XomzOluJBY%3D%3A0"},
{"name": "🐹云星日记", "url": "http://itvbox.cc/tvbox/云星日记/1.m3u8"},

{"name": "🐹运输车", "url":"http://svip.weixine.net:88/uploads/itvbox/svip.json"},
{"name": "🚒运输车", "url": "https://pan.shangui.cc/f/mPecb/%E9%87%87%E9%9B%86.json"},
{"name": "🚚运输车(有跑马灯)", "url": "https://weixine.net/ysc.json"},

{"name": "🐹分享者线路", "url": "http://152.32.170.60/66666/mao/raw/branch/master/00/000.m3u8"},
{"name": "🐹神仙", "url": "http://www.liuyunw.com:88/img"},

{"name": "💎不良帅线路", "url": "https://notabug.org/qizhen15800/My9394/raw/master/%e4%b8%8d%e8%89%af%e5%b8%85.json"},
{"name": "💎不良帅线路(专业版)", "url": "https://notabug.org/qizhen15800/My9394/raw/master/ProfessionalEdition.m3u8"},
{"name": "💎巴拉线路", "url": "https://jxjson.icu/balabala"},
{"name": "💎喵影视线路", "url": "http://meowtv.cn/tv"},
{"name": "💎万达线路", "url": "https://www.macms.pro/box/3.json"},
{"name": "💎小马线路", "url":"https://szyyds.cn/tv/x.json"},
{"name": "💎看电影线路", "url":"https://tv.lan2wan.top/candymuj.json"},
{"name": "💎猎狼线路", "url":"https://lltv8.top"},

{"name": "🏄️业余线路", "url":"http://yydf.540734621.xyz/yydf/yydf/bd/yydf.json"},
{"name": "🏄️业余线路2", "url":"https://ghproxy.net/https://raw.githubusercontent.com/yydfys/yydf/main/yydf/yydfjk.json"},
{"name": "🏄️夜猫子线路", "url":"https://files.catbox.moe/eu3uj5"},
{"name": "🏄️太平洋线路", "url":"http://sinopacifichk.com/box/56.txt"},
{"name": "🏄️高天流云线路", "url":"https://ghproxy.net/https://raw.githubusercontent.com/gaotianliuyun/gao/master/js.json"},
{"name": "🏄️巧记", "url": "http://cdn.qiaoji8.com/tvbox.json"},
{"name": "💦巧记2", "url": "http://pandown.pro/tvbox/tvbox.json"},
{"name": "🚀巧技3", "url": "http://152.32.170.60/relax/adcc/raw/branch/master/tvbox.json"},
{"name": "🏄️无意线路", "url":"http://www.wya6.cn/tv/yc.json"},

{"name": "🚖小盒子接口", "url":"http://xhztv.top/xhz"},
{"name": "🚖小盒子4K接口", "url":"http://xhztv.top/4k.json"},
{"name": "🚖摸鱼4K接口", "url":"http://我不是.摸鱼儿.top"},
{"name": "🚖失眠的夜接口", "url":"http://清清.摸鱼儿.top"},
{"name": "🚖春盈天下(有直播)", "url":"https://wds.ecsxs.com/230989.json"},

{"name": "💎agit/abc线路", "url": "http://152.32.170.60/n/b/raw/branch/a/b/c.json"},
{"name": "💎zzz1线路", "url": "http://152.32.170.60/mmmgit/tvbox/raw/branch/main/zzz1.json"},
{"name": "🏄️胖鸭线路", "url": "http://152.32.170.60/cyl518/yl/raw/branch/master/ml.json"},
{"name": "🚀小苹果线路", "url": "https://bitbucket.org/xduo/duoapi/raw/master/xpg.json"},
{"name": "🚀easybox线路", "url": "https://app.easybox.vip/dy"},
{"name": "🏄️Yosakoii(停更)", "url": "https://raw.gitmirror.com/Yosakoii/Yosakoii.github.io/main/2023.json"},
{"name": "🦀蚂蚁论坛D大", "url": "https://download.kstore.space/download/2883/m3u8/dsj/guochan/mp1/1.m3u8"},

{"name": "👑新夜猫子👑", "url": "https://jihulab.com/ymz1231/xymz/-/raw/main/ymz"},
{"name": "👑夜猫少儿👑", "url": "https://jihulab.com/ymz1231/xymz/-/raw/main/ymshaoer"},
{"name": "👑短剧专线👑", "url": "http://152.32.170.60/hu/hcr/raw/branch/master/%E7%9F%AD%E5%89%A7.json"},
{"name": "👑饭硬到底👑", "url": "http://fan.xxooo.cf/tv"},

{"name": "🐾小雨", "url": "https://gitlab.com/qq475624729/json/-/raw/main/litv.json"},
{"name": "🐾自用", "url": "https://gitlab.com/qq475624729/my-tvbox/-/raw/main/02.json"},
{"name": "👍肥猫", "url": "http://xn--yety82d.love/"},
{"name": "💗锦哥", "url": "http://jin.锦哥哥.love"},
{"name": "🚖春盈天下", "url": "https://wds.ecsxs.com/230989.json"},
{"name": "🚖影探", "url": "http://www.lyyytv.cn/yt/yt.json"},

{"name": "浪里小白龙", "url": "http://39.101.135.137:8080"},
{"name": "👿心魔线路👿", "url": "https://jihulab.com/yw88075/tvbox/-/raw/main/dr/js.json"},
{"name": "🐼熊猫不是猫🐼", "url": "https://gh.con.sh/https://raw.githubusercontent.com/xmbjm/xmbjmjk/main/xmbjm.json"},
{"name": "🐯动漫天堂🐯", "url": "https://www.yingm.cc/dm/dm.json"},
{"name": "🍎鼎盛原小苹果🍎", "url": "http://61.183.41.92:588/%E5%BD%B1%E8%A7%86/%E9%BC%8E%E7%9B%9BMAX.json"},
{"name": "⚽金榜影视", "url": "https://wds.ecsxs.com:443/230989.json"},

{"name": "🐹欧歌线路", "url": "http://tv.nxog.top/m/111.php?ou=%E6%AC%A7%E6%AD%8C&mz=index2&xl=&jar=index2"},
{"name": "🎶讴歌", "url": "http://tv.nxog.top/m/111.php?ou=%E6%AC%A7%E6%AD%8C&mz=index2&xl=&jar=index2"},
{"name": "💕讴歌", "url": "http://tv.nxog.top/m/111.php?ou=公众号欧歌app&mz=index2&jar=index2&123&b=欧歌"},
{"name": "🦉讴歌4K", "url": "http://tv.nxog.top/m/111.php?ou=公众号欧歌app&mz=all&jar=all&b=欧歌"},

{"name": "文君(1220)_OK", "url": "https://gitlab.com/tvbox009/cangku/-/raw/main/Local_qiqi/OK/api.json"},
{"name": "文君(1220)_动漫频道", "url": "https://gitlab.com/tvbox009/cangku/-/raw/main/Local_qiqi/动漫频道/api.json"},
{"name": "文君(1220)_饭太硬", "url": "https://gitlab.com/tvbox009/cangku/-/raw/main/Local_qiqi/饭太硬/api.json"},
{"name": "文君(1220)_肥猫", "url": "https://gitlab.com/tvbox009/cangku/-/raw/main/Local_qiqi/肥猫/api.json"},
{"name": "文君(1220)_摸鱼儿", "url": "https://gitlab.com/tvbox009/cangku/-/raw/main/Local_qiqi/摸鱼儿/api.json"},
{"name": "文君(1220)_南风", "url": "https://gitlab.com/tvbox009/cangku/-/raw/main/Local_qiqi/南风/api.json"},
{"name": "文君(1220)_骚零", "url": "https://gitlab.com/tvbox009/cangku/-/raw/main/Local_qiqi/骚零/api.json"},
{"name": "文君(1220)_少儿频道", "url": "https://gitlab.com/tvbox009/cangku/-/raw/main/Local_qiqi/少儿频道/api.json"},
{"name": "文君(1220)_天天开心", "url": "https://gitlab.com/tvbox009/cangku/-/raw/main/Local_qiqi/天天开心/api.json"},
{"name": "文君(1220)_王二小", "url": "https://gitlab.com/tvbox009/cangku/-/raw/main/Local_qiqi/王二小/api.json"},
{"name": "文君(1220)_香雅情", "url": "https://gitlab.com/tvbox009/cangku/-/raw/main/Local_qiqi/香雅情/api.json"},
{"name": "文君(1220)_潇洒", "url": "https://gitlab.com/tvbox009/cangku/-/raw/main/Local_qiqi/潇洒/api.json"},
{"name": "文君(1220)_欧歌", "url": "https://gitlab.com/tvbox009/cangku/-/raw/main/Local_qiqi/欧歌/api.json"},
{"name": "文君(1220)_小米", "url": "https://gitlab.com/tvbox009/cangku/-/raw/main/Local_qiqi/小米/api.json"}
]
}